
digraph holoFLow {

 "holo*" -> { publishing, OnBoarding, "knowledge tree" }

 publishing -> holoPaper
            -> holoRing
            -> holoMedia -> { holoNews, holoMemes, holoChannel, holoBot }
            -> holoSites
 OnBoarding -> { holoTutos, Videos }

 "knowledge tree" -> holoMap -> holoDict
 "knowledge tree" -> holoMemory
 holoMemory -> { LikeinMind, holoWiki, holoRepo }

 holoWiki -> holoRing
 holoRepo -> { GitHub, IPFS }

 holoMap -> navigation

 holoBot -> { holoContracts, holoWiki }

 holoSites -> "https://holoSphere.gq"
 holoSites -> "https://chii.ml"
 holoSites -> "https://holofunds.ml"
 holoSites -> "https://kind™.ml"

 

}
